\relax 
\@writefile{toc}{\contentsline {section}{\numberline {1}Introduction}{2}}
\@writefile{toc}{\contentsline {section}{\numberline {2}Symbols}{2}}
\@writefile{toc}{\contentsline {section}{\numberline {3}Accents}{7}}
\@writefile{toc}{\contentsline {subsection}{\numberline {3.1}Acute accent for capitals}{8}}
