\relax 
\providecommand\hyper@newdestlabel[2]{}
\providecommand\HyperFirstAtBeginDocument{\AtBeginDocument}
\HyperFirstAtBeginDocument{\ifx\hyper@anchor\@undefined
\global\let\oldcontentsline\contentsline
\gdef\contentsline#1#2#3#4{\oldcontentsline{#1}{#2}{#3}}
\global\let\oldnewlabel\newlabel
\gdef\newlabel#1#2{\newlabelxx{#1}#2}
\gdef\newlabelxx#1#2#3#4#5#6{\oldnewlabel{#1}{{#2}{#3}}}
\AtEndDocument{\ifx\hyper@anchor\@undefined
\let\contentsline\oldcontentsline
\let\newlabel\oldnewlabel
\fi}
\fi}
\global\let\hyper@last\relax 
\gdef\HyperFirstAtBeginDocument#1{#1}
\providecommand\HyField@AuxAddToFields[1]{}
\providecommand\HyField@AuxAddToCoFields[2]{}
\@writefile{toc}{\contentsline {section}{\numberline {1}Introduction}{3}{section.1}}
\@writefile{toc}{\contentsline {section}{\numberline {2}Usage}{3}{section.2}}
\@writefile{toc}{\contentsline {section}{\numberline {3}Comparison with Other Packages}{4}{section.3}}
\@writefile{toc}{\contentsline {section}{\numberline {4}Typesetting Cross-References}{5}{section.4}}
\newlabel{sec:typesetting}{{4}{5}{Typesetting Cross-References}{section.4}{}}
\newlabel{sec:typesetting@cref}{{[section][4][]4}{5}}
\@writefile{toc}{\contentsline {section}{\numberline {5}Sorting and Compressing}{6}{section.5}}
\newlabel{sec:sort&compress}{{5}{6}{Sorting and Compressing}{section.5}{}}
\newlabel{sec:sort&compress@cref}{{[section][5][]5}{6}}
\@writefile{toc}{\contentsline {section}{\numberline {6}Overriding the Cross-Reference Type}{7}{section.6}}
\newlabel{sec:label_type}{{6}{7}{Overriding the Cross-Reference Type}{section.6}{}}
\newlabel{sec:label_type@cref}{{[section][6][]6}{7}}
\@writefile{toc}{\contentsline {section}{\numberline {7}Options that Modify the Cross-Reference Format}{8}{section.7}}
\@writefile{toc}{\contentsline {subsection}{\numberline {7.1}Capitalising All Cross-Reference Names}{8}{subsection.7.1}}
\newlabel{sec:capitalise}{{7.1}{8}{Capitalising All Cross-Reference Names}{subsection.7.1}{}}
\newlabel{sec:capitalise@cref}{{[subsection][1][7]7.1}{8}}
\@writefile{toc}{\contentsline {subsection}{\numberline {7.2}Including Names in Hyperlink Targets}{8}{subsection.7.2}}
\newlabel{sec:nameinlink}{{7.2}{8}{Including Names in Hyperlink Targets}{subsection.7.2}{}}
\newlabel{sec:nameinlink@cref}{{[subsection][2][7]7.2}{8}}
\@writefile{toc}{\contentsline {subsection}{\numberline {7.3}Avoiding Abbreviations in Cross-Reference Names}{9}{subsection.7.3}}
\newlabel{sec:noabbrev}{{7.3}{9}{Avoiding Abbreviations in Cross-Reference Names}{subsection.7.3}{}}
\newlabel{sec:noabbrev@cref}{{[subsection][3][7]7.3}{9}}
\@writefile{toc}{\contentsline {section}{\numberline {8}Customising the Cross-Reference Formats}{9}{section.8}}
\newlabel{sec:customising}{{8}{9}{Customising the Cross-Reference Formats}{section.8}{}}
\newlabel{sec:customising@cref}{{[section][8][]8}{9}}
\@writefile{toc}{\contentsline {subsection}{\numberline {8.1}Customising the Cross-Reference Components}{10}{subsection.8.1}}
\newlabel{sec:component_customisation}{{8.1}{10}{Customising the Cross-Reference Components}{subsection.8.1}{}}
\newlabel{sec:component_customisation@cref}{{[subsection][1][8]8.1}{10}}
\@writefile{toc}{\contentsline {subsubsection}{\numberline {8.1.1}Global Customisation}{10}{subsubsection.8.1.1}}
\newlabel{sec:global_customisation}{{8.1.1}{10}{Global Customisation}{subsubsection.8.1.1}{}}
\newlabel{sec:global_customisation@cref}{{[subsubsection][1][8,1]8.1.1}{10}}
\@writefile{toc}{\contentsline {subsubsection}{\numberline {8.1.2}Customising Individual Cross-Reference Types}{11}{subsubsection.8.1.2}}
\newlabel{sec:individual_customisation}{{8.1.2}{11}{Customising Individual Cross-Reference Types}{subsubsection.8.1.2}{}}
\newlabel{sec:individual_customisation@cref}{{[subsubsection][2][8,1]8.1.2}{11}}
\@writefile{toc}{\contentsline {subsubsection}{\numberline {8.1.3}Automatic \textbackslash \texttt  {newtheorem} Definitions}{12}{subsubsection.8.1.3}}
\@writefile{toc}{\contentsline {subsection}{\numberline {8.2}Low-Level Customisation: Taking Full Control}{13}{subsection.8.2}}
\newlabel{sec:low-level_customisation}{{8.2}{13}{Low-Level Customisation: Taking Full Control}{subsection.8.2}{}}
\newlabel{sec:low-level_customisation@cref}{{[subsection][2][8]8.2}{13}}
\@writefile{toc}{\contentsline {subsubsection}{\numberline {8.2.1}Single Cross-References}{13}{subsubsection.8.2.1}}
\newlabel{sec:ref_format}{{8.2.1}{13}{Single Cross-References}{subsubsection.8.2.1}{}}
\newlabel{sec:ref_format@cref}{{[subsubsection][1][8,2]8.2.1}{13}}
\@writefile{toc}{\contentsline {subsubsection}{\numberline {8.2.2}Reference Ranges}{14}{subsubsection.8.2.2}}
\newlabel{sec:ref_range_format}{{8.2.2}{14}{Reference Ranges}{subsubsection.8.2.2}{}}
\newlabel{sec:ref_range_format@cref}{{[subsubsection][2][8,2]8.2.2}{14}}
\@writefile{toc}{\contentsline {subsubsection}{\numberline {8.2.3}Multiple Cross-References}{15}{subsubsection.8.2.3}}
\newlabel{sec:multiple_ref_format}{{8.2.3}{15}{Multiple Cross-References}{subsubsection.8.2.3}{}}
\newlabel{sec:multiple_ref_format@cref}{{[subsubsection][3][8,2]8.2.3}{15}}
\@writefile{toc}{\contentsline {subsubsection}{\numberline {8.2.4}Label Cross-References}{15}{subsubsection.8.2.4}}
\@writefile{toc}{\contentsline {section}{\numberline {9}Advanced Cross-Reference Formating}{15}{section.9}}
\@writefile{toc}{\contentsline {section}{\numberline {10}Language, \texttt  {babel} and \texttt  {polyglossia} support}{16}{section.10}}
\newlabel{sec:language_babel}{{10}{16}{Language, \package {babel} and \package {polyglossia} support}{section.10}{}}
\newlabel{sec:language_babel@cref}{{[section][10][]10}{16}}
\@writefile{toc}{\contentsline {section}{\numberline {11}The \texttt  {cleveref.cfg} File}{18}{section.11}}
\@writefile{toc}{\contentsline {section}{\numberline {12}Poor Man's \texttt  {cleveref}}{18}{section.12}}
\@writefile{toc}{\contentsline {section}{\numberline {13}Interaction with Other Packages}{19}{section.13}}
\newlabel{sec:other_packages}{{13}{19}{Interaction with Other Packages}{section.13}{}}
\newlabel{sec:other_packages@cref}{{[section][13][]13}{19}}
\@writefile{toc}{\contentsline {section}{\numberline {14}Known Bugs, Non-Bugs, and Possible}{19}{section.14}}
\newlabel{sec:known_bugs}{{14}{19}{Known Bugs, Non-Bugs, and Possible}{section.14}{}}
\newlabel{sec:known_bugs@cref}{{[section][14][]14}{19}}
\@writefile{toc}{\contentsline {subsection}{\numberline {14.1}Non-Bugs}{19}{subsection.14.1}}
\newlabel{sec:non-bugs}{{14.1}{19}{Non-Bugs}{subsection.14.1}{}}
\newlabel{sec:non-bugs@cref}{{[subsection][1][14]14.1}{19}}
\@writefile{toc}{\contentsline {subsection}{\numberline {14.2}Known Bugs and Work-Arounds}{20}{subsection.14.2}}
\@writefile{toc}{\contentsline {subsection}{\numberline {14.3}Possible New Features and Improvements}{21}{subsection.14.3}}
\newlabel{sec:new-features}{{14.3}{21}{Possible New Features and Improvements}{subsection.14.3}{}}
\newlabel{sec:new-features@cref}{{[subsection][3][14]14.3}{21}}
\@writefile{toc}{\contentsline {section}{\numberline {15}Thanks}{21}{section.15}}
\@writefile{toc}{\contentsline {section}{\numberline {16}Implementation}{23}{section.16}}
\@writefile{toc}{\contentsline {subsection}{\numberline {16.1}Redefinitions of \LaTeX  {} Kernel Macros}{23}{subsection.16.1}}
\@writefile{toc}{\contentsline {subsection}{\numberline {16.2}Utility Macros}{28}{subsection.16.2}}
\@writefile{toc}{\contentsline {subsubsection}{\numberline {16.2.1}miscellaneous}{28}{subsubsection.16.2.1}}
\@writefile{toc}{\contentsline {subsubsection}{\numberline {16.2.2}\texttt  {aux} file information}{28}{subsubsection.16.2.2}}
\@writefile{toc}{\contentsline {subsubsection}{\numberline {16.2.3}Stack data structures}{29}{subsubsection.16.2.3}}
\@writefile{toc}{\contentsline {subsubsection}{\numberline {16.2.4}Sorting and comparison of counters}{32}{subsubsection.16.2.4}}
\@writefile{toc}{\contentsline {subsubsection}{\numberline {16.2.5}Reference stack processing}{38}{subsubsection.16.2.5}}
\@writefile{toc}{\contentsline {subsubsection}{\numberline {16.2.6}Prefix-stripping}{41}{subsubsection.16.2.6}}
\@writefile{toc}{\contentsline {subsection}{\numberline {16.3}Cross-Referencing Commands}{43}{subsection.16.3}}
\@writefile{toc}{\contentsline {subsection}{\numberline {16.4}Page-Referencing Commands}{49}{subsection.16.4}}
\@writefile{toc}{\contentsline {subsection}{\numberline {16.5}Reference Format Customisation Commands}{53}{subsection.16.5}}
\@writefile{toc}{\contentsline {subsubsection}{\numberline {16.5.1}Format component commands}{53}{subsubsection.16.5.1}}
\@writefile{toc}{\contentsline {subsubsection}{\numberline {16.5.2}Format definition commands}{62}{subsubsection.16.5.2}}
\newlabel{sec:crefformat}{{16.5.2}{62}{Format definition commands}{subsubsection.16.5.2}{}}
\newlabel{sec:crefformat@cref}{{[subsubsection][2][16,5]16.5.2}{62}}
\@writefile{toc}{\contentsline {subsection}{\numberline {16.6}Support for Other Packages}{66}{subsection.16.6}}
\@writefile{toc}{\contentsline {subsubsection}{\numberline {16.6.1}\texttt  {hyperref} support}{66}{subsubsection.16.6.1}}
\@writefile{toc}{\contentsline {subsubsection}{\numberline {16.6.2}\texttt  {revtex4} and \texttt  {revtex4-1} support}{70}{subsubsection.16.6.2}}
\@writefile{toc}{\contentsline {subsubsection}{\numberline {16.6.3}\texttt  {varioref} support}{71}{subsubsection.16.6.3}}
\@writefile{toc}{\contentsline {subsubsection}{\numberline {16.6.4}\texttt  {amsmath} support}{77}{subsubsection.16.6.4}}
\@writefile{toc}{\contentsline {subsubsection}{\numberline {16.6.5}\texttt  {amsthm} support}{83}{subsubsection.16.6.5}}
\@writefile{toc}{\contentsline {subsubsection}{\numberline {16.6.6}\texttt  {ntheorem} support}{85}{subsubsection.16.6.6}}
\@writefile{toc}{\contentsline {subsubsection}{\numberline {16.6.7}\texttt  {IEEEtrantools} support}{85}{subsubsection.16.6.7}}
\@writefile{toc}{\contentsline {subsubsection}{\numberline {16.6.8}\texttt  {breqn} support}{86}{subsubsection.16.6.8}}
\@writefile{toc}{\contentsline {subsubsection}{\numberline {16.6.9}\texttt  {algorithmicx} support}{87}{subsubsection.16.6.9}}
\@writefile{toc}{\contentsline {subsubsection}{\numberline {16.6.10}\texttt  {listings} support}{87}{subsubsection.16.6.10}}
\@writefile{toc}{\contentsline {subsubsection}{\numberline {16.6.11}\texttt  {algorithm2e} support}{88}{subsubsection.16.6.11}}
\@writefile{toc}{\contentsline {subsubsection}{\numberline {16.6.12}\texttt  {subfig} support}{88}{subsubsection.16.6.12}}
\@writefile{toc}{\contentsline {subsubsection}{\numberline {16.6.13}\texttt  {memoir} subfig support}{89}{subsubsection.16.6.13}}
\@writefile{toc}{\contentsline {subsubsection}{\numberline {16.6.14}\texttt  {caption} support}{89}{subsubsection.16.6.14}}
\@writefile{toc}{\contentsline {subsubsection}{\numberline {16.6.15}\texttt  {aliascnt} support}{90}{subsubsection.16.6.15}}
\@writefile{toc}{\contentsline {subsection}{\numberline {16.7}Poor Man's \texttt  {cleveref}}{91}{subsection.16.7}}
\@writefile{toc}{\contentsline {subsection}{\numberline {16.8}Sort and Compress Options}{103}{subsection.16.8}}
\@writefile{toc}{\contentsline {subsection}{\numberline {16.9}Capitalise Option}{104}{subsection.16.9}}
\@writefile{toc}{\contentsline {subsection}{\numberline {16.10}Nameinlink Option}{104}{subsection.16.10}}
\@writefile{toc}{\contentsline {subsection}{\numberline {16.11}Noabbrev Option}{104}{subsection.16.11}}
\@writefile{toc}{\contentsline {subsection}{\numberline {16.12}Language and \texttt  {babel} Support}{104}{subsection.16.12}}
\newlabel{sec:code:babel}{{16.12}{104}{Language and \package {babel} Support}{subsection.16.12}{}}
\newlabel{sec:code:babel@cref}{{[subsection][12][16]16.12}{104}}
\@writefile{toc}{\contentsline {subsubsection}{\numberline {16.12.1}English}{105}{subsubsection.16.12.1}}
\@writefile{toc}{\contentsline {subsubsection}{\numberline {16.12.2}German}{109}{subsubsection.16.12.2}}
\@writefile{toc}{\contentsline {subsubsection}{\numberline {16.12.3}Dutch}{113}{subsubsection.16.12.3}}
\@writefile{toc}{\contentsline {subsubsection}{\numberline {16.12.4}French}{117}{subsubsection.16.12.4}}
\@writefile{toc}{\contentsline {subsubsection}{\numberline {16.12.5}Spanish}{120}{subsubsection.16.12.5}}
\@writefile{toc}{\contentsline {subsubsection}{\numberline {16.12.6}Italian}{124}{subsubsection.16.12.6}}
\@writefile{toc}{\contentsline {subsubsection}{\numberline {16.12.7}Russian}{128}{subsubsection.16.12.7}}
\@writefile{toc}{\contentsline {subsubsection}{\numberline {16.12.8}Ukrainian}{140}{subsubsection.16.12.8}}
\@writefile{toc}{\contentsline {subsubsection}{\numberline {16.12.9}Norwegian}{152}{subsubsection.16.12.9}}
\@writefile{toc}{\contentsline {subsubsection}{\numberline {16.12.10}Danish}{156}{subsubsection.16.12.10}}
\@writefile{toc}{\contentsline {subsubsection}{\numberline {16.12.11}Esperanto}{159}{subsubsection.16.12.11}}
\@writefile{toc}{\contentsline {subsubsection}{\numberline {16.12.12}Swedish}{162}{subsubsection.16.12.12}}
\@writefile{toc}{\contentsline {subsubsection}{\numberline {16.12.13}Brazilian}{166}{subsubsection.16.12.13}}
\@writefile{toc}{\contentsline {subsection}{\numberline {16.13}Default Cross-Reference Formats}{169}{subsection.16.13}}
\newlabel{sec:code:default_formats}{{16.13}{169}{Default Cross-Reference Formats}{subsection.16.13}{}}
\newlabel{sec:code:default_formats@cref}{{[subsection][13][16]16.13}{169}}
\@writefile{toc}{\contentsline {subsection}{\numberline {16.14}\texttt  {cleveref.cfg} Config File}{186}{subsection.16.14}}
\providecommand\HD@SetMacroIndent[1]{}
\HD@SetMacroIndent{8410}
