\relax 
\@writefile{toc}{\contentsline {section}{\numberline {1}The name of the game}{1}}
\@writefile{toc}{\contentsline {section}{\numberline {2}How to use it}{1}}
\@writefile{toc}{\contentsline {subsection}{\numberline {2.1}Restrictions}{2}}
\@writefile{toc}{\contentsline {section}{\numberline {3}About the internals}{2}}
\@writefile{toc}{\contentsline {subsection}{\numberline {3.1}Implantation into the \LaTeX  {} context}{2}}
\@writefile{toc}{\contentsline {subsection}{\numberline {3.2}Alternating figure setting}{3}}
\@writefile{toc}{\contentsline {subsection}{\numberline {3.3}Collisions of Floating Figures}{4}}
\@writefile{toc}{\contentsline {section}{\numberline {4}Known Problems}{4}}
\@writefile{toc}{\contentsline {subsection}{\numberline {4.1}Need of Initialization}{4}}
\@writefile{toc}{\contentsline {subsection}{\numberline {4.2}Misleading collision warnings}{4}}
\@writefile{toc}{\contentsline {section}{\numberline {5}Conclusions}{5}}
\@writefile{toc}{\contentsline {subsection}{\numberline {5.1}Note by Mats Dahlgren}{5}}
