\relax 
\ifx\hyper@anchor\@undefined
\global \let \oldcontentsline\contentsline
\gdef \contentsline#1#2#3#4{\oldcontentsline{#1}{#2}{#3}}
\global \let \oldnewlabel\newlabel
\gdef \newlabel#1#2{\newlabelxx{#1}#2}
\gdef \newlabelxx#1#2#3#4#5#6{\oldnewlabel{#1}{{#2}{#3}}}
\AtEndDocument{\let \contentsline\oldcontentsline
\let \newlabel\oldnewlabel}
\else
\global \let \hyper@last\relax 
\fi

\@writefile{toc}{\contentsline {section}{\numberline {1}Introduction}{4}{section.1}}
\@writefile{toc}{\contentsline {subsection}{\numberline {1.1}Historical notes}{4}{subsection.1.1}}
\@writefile{toc}{\contentsline {subsection}{\numberline {1.2}The classes of SI units}{4}{subsection.1.2}}
\@writefile{toc}{\contentsline {subsection}{\numberline {1.3}The SI prefixes}{4}{subsection.1.3}}
\@writefile{toc}{\contentsline {subsection}{\numberline {1.4}Acronyms}{5}{subsection.1.4}}
\newlabel{acronyms}{{1.4}{5}{Acronyms\relax }{subsection.1.4}{}}
\@writefile{toc}{\contentsline {subsection}{\numberline {1.5}Some useful definitions}{5}{subsection.1.5}}
\newlabel{celsiusexample}{{1.5}{5}{Some useful definitions\relax }{subsection.1.5}{}}
\@writefile{toc}{\contentsline {section}{\numberline {2}SI units}{6}{section.2}}
\@writefile{toc}{\contentsline {subsection}{\numberline {2.1}SI base units}{6}{subsection.2.1}}
\@writefile{toc}{\contentsline {subsubsection}{\numberline {2.1.1}Definitions}{6}{subsubsection.2.1.1}}
\@writefile{lot}{\contentsline {table}{\numberline {1}{\ignorespaces --- SI base units ---}}{8}{table.1}}
\newlabel{table:base}{{1}{8}{Symbols\relax }{table.1}{}}
\@writefile{lot}{\contentsline {table}{\numberline {2}{\ignorespaces --- Examples of SI derived units ---}}{8}{table.2}}
\newlabel{table:derived1}{{2}{8}{Units expressed in terms of base units\relax }{table.2}{}}
\@writefile{toc}{\contentsline {subsubsection}{\numberline {2.1.2}Symbols}{8}{subsubsection.2.1.2}}
\@writefile{toc}{\contentsline {subsection}{\numberline {2.2}SI derived units}{8}{subsection.2.2}}
\newlabel{derived}{{2.2}{8}{SI derived units\relax }{subsection.2.2}{}}
\@writefile{toc}{\contentsline {subsubsection}{\numberline {2.2.1}Units expressed in terms of base units}{8}{subsubsection.2.2.1}}
\@writefile{toc}{\contentsline {subsubsection}{\numberline {2.2.2}SI derived units with special names and symbols}{8}{subsubsection.2.2.2}}
\@writefile{lot}{\contentsline {table}{\numberline {3}{\ignorespaces --- SI derived units with special names and symbols ---}}{9}{table.3}}
\newlabel{table:derived2}{{3}{9}{SI derived units with special names and symbols\relax }{table.3}{}}
\@writefile{lot}{\contentsline {table}{\numberline {4}{\ignorespaces --- Examples of SI derived units expressed with the aid of SI derived units having special names and symbols ---}}{10}{table.4}}
\newlabel{table:derived3}{{4}{10}{Use of SI derived units with special names and symbols\relax }{table.4}{}}
\@writefile{toc}{\contentsline {subsubsection}{\numberline {2.2.3}Use of SI derived units with special names and symbols}{10}{subsubsection.2.2.3}}
\@writefile{toc}{\contentsline {subsection}{\numberline {2.3}Dimension of a quantity}{10}{subsection.2.3}}
\@writefile{toc}{\contentsline {subsubsection}{\numberline {2.3.1}Units for dimensionless quantities, quantities of dimension one}{11}{subsubsection.2.3.1}}
\@writefile{toc}{\contentsline {subsection}{\numberline {2.4}Rules and style conventions for writing and using SI unit symbols}{11}{subsection.2.4}}
\@writefile{toc}{\contentsline {subsubsection}{\numberline {2.4.1}Space between numerical value and unit symbol}{12}{subsubsection.2.4.1}}
\@writefile{toc}{\contentsline {section}{\numberline {3}SI Prefixes}{12}{section.3}}
\@writefile{toc}{\contentsline {subsection}{\numberline {3.1}Decimal multiples and submultiples of SI units}{12}{subsection.3.1}}
\@writefile{lot}{\contentsline {table}{\numberline {5}{\ignorespaces --- SI prefixes ---}}{13}{table.5}}
\newlabel{table:prefixes}{{5}{13}{Decimal multiples and submultiples of SI units\relax }{table.5}{}}
\@writefile{toc}{\contentsline {subsection}{\numberline {3.2}Rules for using SI prefixes}{13}{subsection.3.2}}
\@writefile{toc}{\contentsline {subsubsection}{\numberline {3.2.1}The kilogram}{13}{subsubsection.3.2.1}}
\@writefile{lot}{\contentsline {table}{\numberline {6}{\ignorespaces --- Prefixes for binary multiples ---}}{14}{table.6}}
\newlabel{table:bipre}{{6}{14}{Prefixes for binary multiples\relax }{table.6}{}}
\@writefile{lot}{\contentsline {table}{\numberline {7}{\ignorespaces --- Examples and comparisons with SI prefixes ---}}{14}{table.7}}
\newlabel{table:bipre2}{{7}{14}{Prefixes for binary multiples\relax }{table.7}{}}
\@writefile{toc}{\contentsline {subsubsection}{\numberline {3.2.2}The `degree Celsius'}{14}{subsubsection.3.2.2}}
\@writefile{toc}{\contentsline {section}{\numberline {4}Prefixes for binary multiples}{14}{section.4}}
\@writefile{toc}{\contentsline {subsection}{\numberline {4.1}Official publication}{14}{subsection.4.1}}
\@writefile{toc}{\contentsline {subsection}{\numberline {4.2}The \texttt  {binary.sty} style for binary prefixes and (non-SI) units}{15}{subsection.4.2}}
\@writefile{toc}{\contentsline {section}{\numberline {5}Units outside the SI}{15}{section.5}}
\@writefile{toc}{\contentsline {subsection}{\numberline {5.1}Units accepted for use with the SI}{15}{subsection.5.1}}
\@writefile{toc}{\contentsline {subsection}{\numberline {5.2}Units temporarily accepted for use with the SI}{15}{subsection.5.2}}
\@writefile{toc}{\contentsline {section}{\numberline {6}Last notes about correct usage of the SI}{15}{section.6}}
\@writefile{lot}{\contentsline {table}{\numberline {8}{\ignorespaces --- Units accepted for use with the SI ---}}{16}{table.8}}
\newlabel{table:accepted1}{{8}{16}{Units accepted for use with the SI\relax }{table.8}{}}
\@writefile{lot}{\contentsline {table}{\numberline {9}{\ignorespaces --- Units accepted for use with the SI whose values in SI units are obtained experimentally ---}}{16}{table.9}}
\newlabel{table:accepted2}{{9}{16}{Units accepted for use with the SI\relax }{table.9}{}}
\@writefile{lot}{\contentsline {table}{\numberline {10}{\ignorespaces --- Units in use temporarily with the SI ---}}{17}{table.10}}
\newlabel{table:temporarily}{{10}{17}{Units temporarily accepted for use with the SI\relax }{table.10}{}}
\@writefile{toc}{\contentsline {section}{\numberline {7}How to use the package}{17}{section.7}}
\@writefile{toc}{\contentsline {subsection}{\numberline {7.1}Loading}{17}{subsection.7.1}}
\@writefile{toc}{\contentsline {subsection}{\numberline {7.2}The package options}{18}{subsection.7.2}}
\newlabel{sec:options}{{7.2}{18}{The package options\relax }{subsection.7.2}{}}
\@writefile{toc}{\contentsline {subsubsection}{\numberline {7.2.1}Unit spacing options}{18}{subsubsection.7.2.1}}
\@writefile{toc}{\contentsline {subsubsection}{\numberline {7.2.2}Quantity-unit spacing options}{18}{subsubsection.7.2.2}}
\@writefile{toc}{\contentsline {subsubsection}{\numberline {7.2.3}Options to prevent conflicts}{18}{subsubsection.7.2.3}}
\@writefile{lot}{\contentsline {table}{\numberline {11}{\ignorespaces --- Spacing options ---}}{19}{table.11}}
\newlabel{table:spacing}{{11}{19}{miscellaneous\relax }{table.11}{}}
\@writefile{toc}{\contentsline {subsubsection}{\numberline {7.2.4}textstyle}{19}{subsubsection.7.2.4}}
\@writefile{toc}{\contentsline {subsubsection}{\numberline {7.2.5}miscellaneous}{19}{subsubsection.7.2.5}}
\@writefile{toc}{\contentsline {subsection}{\numberline {7.3}How to compose units in your text.}{20}{subsection.7.3}}
\@writefile{toc}{\contentsline {subsubsection}{\numberline {7.3.1}Division or multiplication of SI units}{20}{subsubsection.7.3.1}}
\@writefile{toc}{\contentsline {paragraph}{Division}{20}{section*.18}}
\@writefile{toc}{\contentsline {paragraph}{Multiplication}{20}{section*.19}}
\@writefile{toc}{\contentsline {paragraph}{Mixed case}{20}{section*.20}}
\@writefile{toc}{\contentsline {subsubsection}{\numberline {7.3.2}Raising SI units to a power}{20}{subsubsection.7.3.2}}
\@writefile{toc}{\contentsline {paragraph}{Squaring and cubing}{20}{section*.21}}
\newlabel{commandreference}{{7.3}{21}{How to compose units in your text}{subsection.7.3}{}}
\@writefile{toc}{\contentsline {paragraph}{The reciprocal, reciprocal squaring and - cubing}{22}{section*.22}}
\@writefile{toc}{\contentsline {paragraph}{The power function}{22}{section*.23}}
\@writefile{toc}{\contentsline {subsection}{\numberline {7.4}Quantities and units}{22}{subsection.7.4}}
\@writefile{toc}{\contentsline {subsubsection}{\numberline {7.4.1}Ready-to-use units}{22}{subsubsection.7.4.1}}
\@writefile{toc}{\contentsline {section}{\numberline {8}How the package works}{24}{section.8}}
\@writefile{toc}{\contentsline {subsection}{\numberline {8.1}Compatibility}{24}{subsection.8.1}}
\@writefile{toc}{\contentsline {subsection}{\numberline {8.2}Known problems and limitations}{24}{subsection.8.2}}
\@writefile{toc}{\contentsline {subsection}{\numberline {8.3}Sending a bug report}{25}{subsection.8.3}}
\@writefile{toc}{\contentsline {section}{\numberline {9}In conclusion}{25}{section.9}}
\@writefile{toc}{\contentsline {subsection}{\numberline {9.1}Acknowledgements}{25}{subsection.9.1}}
\@writefile{toc}{\contentsline {subsection}{\numberline {9.2}References}{25}{subsection.9.2}}
\providecommand\HD@SetMacroIndent[1]{}
\HD@SetMacroIndent{0}
