\relax 
\ifx\hyper@anchor\@undefined
\global \let \oldcontentsline\contentsline
\gdef \contentsline#1#2#3#4{\oldcontentsline{#1}{#2}{#3}}
\global \let \oldnewlabel\newlabel
\gdef \newlabel#1#2{\newlabelxx{#1}#2}
\gdef \newlabelxx#1#2#3#4#5#6{\oldnewlabel{#1}{{#2}{#3}}}
\AtEndDocument{\let \contentsline\oldcontentsline
\let \newlabel\oldnewlabel}
\else
\global \let \hyper@last\relax 
\fi

\@writefile{toc}{\contentsline {section}{\numberline {1}List of Figures}{2}{section.1}}
\@writefile{toc}{\contentsline {section}{\numberline {2}List of Tables}{2}{section.2}}
\@writefile{toc}{\contentsline {section}{\numberline {3}Introduction}{2}{section.3}}
\@writefile{toc}{\contentsline {section}{\numberline {4}Data Types}{3}{section.4}}
\newlabel{sec:datatypes}{{4}{3}{Data Types\relax }{section.4}{}}
\@writefile{toc}{\contentsline {subsection}{\numberline {4.1}Conditionals}{4}{subsection.4.1}}
\newlabel{sec:ifconditions}{{4.1}{4}{Conditionals\relax }{subsection.4.1}{}}
\@writefile{toc}{\contentsline {subsection}{\numberline {4.2}\textsf  {ifthen} conditionals}{11}{subsection.4.2}}
\newlabel{sec:ifthen}{{4.2}{11}{\texorpdfstring {\sty {ifthen}}{ifthen} conditionals\relax }{subsection.4.2}{}}
\@writefile{toc}{\contentsline {section}{\numberline {5}Fixed Point Arithmetic}{15}{section.5}}
\newlabel{sec:fp}{{5}{15}{Fixed Point Arithmetic\relax }{section.5}{}}
\@writefile{toc}{\contentsline {section}{\numberline {6}Strings}{21}{section.6}}
\newlabel{sec:strings}{{6}{21}{Strings\relax }{section.6}{}}
\@writefile{toc}{\contentsline {section}{\numberline {7}Databases}{23}{section.7}}
\newlabel{sec:databases}{{7}{23}{Databases\relax }{section.7}{}}
\@writefile{toc}{\contentsline {subsection}{\numberline {7.1}Creating a New Database}{23}{subsection.7.1}}
\newlabel{sec:newdb}{{7.1}{23}{Creating a New Database\relax }{subsection.7.1}{}}
\@writefile{toc}{\contentsline {subsection}{\numberline {7.2}Loading a Database from an External ASCII File}{25}{subsection.7.2}}
\newlabel{sec:loaddb}{{7.2}{25}{Loading a Database from an External ASCII File\relax }{subsection.7.2}{}}
\@writefile{lot}{\contentsline {table}{\numberline {1}{\ignorespaces Special character mappings used by \cs  {DTLloadrawdb}}}{27}{table.1}}
\providecommand*\caption@xref[2]{\@setref\relax\@undefined{#1}}
\newlabel{tab:rawmappings}{{1}{27}{Loading a Database from an External ASCII File\relax }{table.1}{}}
\@writefile{toc}{\contentsline {subsection}{\numberline {7.3}Displaying the Contents of a Database}{28}{subsection.7.3}}
\newlabel{sec:displaydb}{{7.3}{28}{Displaying the Contents of a Database\relax }{subsection.7.3}{}}
\newlabel{ex:displaydb}{{1}{28}{Displaying the Contents of a Database\relax }{example.1}{}}
\@writefile{loe}{\contentsline {section}{\numberline {1}Displaying the Contents of a Database}{28}{example.1}}
\@writefile{lot}{\contentsline {table}{\numberline {2}{\ignorespaces Time to Growth Data}}{29}{table.2}}
\newlabel{tab:t2g}{{2}{29}{Displaying the Contents of a Database\relax }{table.2}{}}
\newlabel{ex:balance}{{2}{31}{Displaying the Contents of a Database\relax }{example.2}{}}
\@writefile{loe}{\contentsline {section}{\numberline {2}Balance Sheet}{31}{example.2}}
\@writefile{lot}{\contentsline {table}{\numberline {3}{\ignorespaces Balance Sheet}}{31}{table.3}}
\newlabel{tab:balance}{{3}{31}{Displaying the Contents of a Database\relax }{table.3}{}}
\@writefile{toc}{\contentsline {subsection}{\numberline {7.4}Iterating Through a Database}{32}{subsection.7.4}}
\newlabel{sec:dbforeach}{{7.4}{32}{Iterating Through a Database\relax }{subsection.7.4}{}}
\newlabel{ex:scores}{{3}{32}{Iterating Through a Database\relax }{example.3}{}}
\@writefile{loe}{\contentsline {section}{\numberline {3}Student scores}{32}{example.3}}
\@writefile{lot}{\contentsline {table}{\numberline {4}{\ignorespaces Student scores (displaying a database in a table)}}{33}{table.4}}
\newlabel{tab:scores}{{4}{33}{Iterating Through a Database\relax }{table.4}{}}
\newlabel{ex:label}{{4}{34}{Iterating Through a Database\relax }{example.4}{}}
\@writefile{loe}{\contentsline {section}{\numberline {4}Student Scores---Labelling}{34}{example.4}}
\newlabel{ex:filter}{{5}{34}{Iterating Through a Database\relax }{example.5}{}}
\@writefile{loe}{\contentsline {section}{\numberline {5}Filtering Rows}{34}{example.5}}
\@writefile{lot}{\contentsline {table}{\numberline {5}{\ignorespaces Student scores (labelling rows)}}{35}{table.5}}
\newlabel{tab:scoreslab}{{5}{35}{Iterating Through a Database\relax }{table.5}{}}
\newlabel{row:68}{{1}{35}{Iterating Through a Database\relax }{DTLrowi.4.1}{}}
\newlabel{row:75}{{2}{35}{Iterating Through a Database\relax }{DTLrowi.4.2}{}}
\newlabel{row:42}{{3}{35}{Iterating Through a Database\relax }{DTLrowi.4.3}{}}
\newlabel{row:52}{{4}{35}{Iterating Through a Database\relax }{DTLrowi.4.4}{}}
\newlabel{row:58}{{5}{35}{Iterating Through a Database\relax }{DTLrowi.4.5}{}}
\newlabel{row:45}{{6}{35}{Iterating Through a Database\relax }{DTLrowi.4.6}{}}
\@writefile{lot}{\contentsline {table}{\numberline {6}{\ignorespaces Top student scores (filtering rows using \cs  {DTLisgt})}}{35}{table.6}}
\newlabel{tab:topscores}{{6}{35}{Iterating Through a Database\relax }{table.6}{}}
\@writefile{lot}{\contentsline {table}{\numberline {7}{\ignorespaces Student scores (B) --- filtering rows using \cs  {DTLisopenbetween}}}{36}{table.7}}
\newlabel{tab:Bscores}{{7}{36}{Iterating Through a Database\relax }{table.7}{}}
\newlabel{ex:dtlbreak}{{6}{36}{Iterating Through a Database\relax }{example.6}{}}
\@writefile{loe}{\contentsline {section}{\numberline {6}Breaking Out of a Loop}{36}{example.6}}
\@writefile{lot}{\contentsline {table}{\numberline {8}{\ignorespaces First Three Rows}}{36}{table.8}}
\newlabel{tab:dtlbreak}{{8}{36}{Iterating Through a Database\relax }{table.8}{}}
\newlabel{ex:stripy}{{7}{36}{Iterating Through a Database\relax }{example.7}{}}
\@writefile{loe}{\contentsline {section}{\numberline {7}Stripy Tables}{37}{example.7}}
\@writefile{lot}{\contentsline {table}{\numberline {9}{\ignorespaces A stripy table (illustrating the use of \cs  {DTLifoddrow})}}{37}{table.9}}
\newlabel{tab:stripy}{{9}{37}{Iterating Through a Database\relax }{table.9}{}}
\newlabel{ex:2rows}{{8}{37}{Iterating Through a Database\relax }{example.8}{}}
\@writefile{loe}{\contentsline {section}{\numberline {8}Two Database Rows per Tabular Row}{37}{example.8}}
\@writefile{lot}{\contentsline {table}{\numberline {10}{\ignorespaces Two database rows per tabular row (illustrating the use of\newline  \cs  {DTLifoddrow})}}{38}{table.10}}
\newlabel{tab:2rows}{{10}{38}{Iterating Through a Database\relax }{table.10}{}}
\newlabel{ex:foreachkey}{{9}{38}{Iterating Through a Database\relax }{example.9}{}}
\@writefile{loe}{\contentsline {section}{\numberline {9}Iterating Through Keys in a Row}{38}{example.9}}
\@writefile{lot}{\contentsline {table}{\numberline {11}{\ignorespaces Student Scores (Iterating Through Keys)}}{38}{table.11}}
\newlabel{tab:foreachkey}{{11}{38}{Iterating Through a Database\relax }{table.11}{}}
\@writefile{lot}{\contentsline {table}{\numberline {12}{\ignorespaces Student Scores (Using \cs  {dtlforeachkey} and \cs  {DTLforeachkeyinrow})}}{39}{table.12}}
\newlabel{tab:foreachkey2}{{12}{39}{Iterating Through a Database\relax }{table.12}{}}
\@writefile{lot}{\contentsline {table}{\numberline {13}{\ignorespaces Student Scores (Filtering Out a Column)}}{40}{table.13}}
\newlabel{tab:foreachkey3}{{13}{40}{Iterating Through a Database\relax }{table.13}{}}
\newlabel{ex:nested}{{10}{40}{Iterating Through a Database\relax }{example.10}{}}
\@writefile{loe}{\contentsline {section}{\numberline {10}Nested \cs  {DTLforeach}}{40}{example.10}}
\@writefile{lot}{\contentsline {table}{\numberline {14}{\ignorespaces Temperature = 25, NaCl = 4.7, pH = 0.5 (illustrating nested \cs  {DTLforeach})}}{41}{table.14}}
\newlabel{tab:exp25a.csv}{{14}{41}{Iterating Through a Database\relax }{table.14}{}}
\@writefile{lot}{\contentsline {table}{\numberline {15}{\ignorespaces Temperature = 25, NaCl = 4.8, pH = 1.5 (illustrating nested \cs  {DTLforeach})}}{41}{table.15}}
\newlabel{tab:exp25b.csv}{{15}{41}{Iterating Through a Database\relax }{table.15}{}}
\@writefile{lot}{\contentsline {table}{\numberline {16}{\ignorespaces Temperature = 30, NaCl = 5.12, pH = 4.5 (illustrating nested \cs  {DTLforeach})}}{41}{table.16}}
\newlabel{tab:exp30a.csv}{{16}{41}{Iterating Through a Database\relax }{table.16}{}}
\newlabel{ex:dyn}{{11}{41}{Iterating Through a Database\relax }{example.11}{}}
\@writefile{loe}{\contentsline {section}{\numberline {11}Dynamically Allocating Field Name}{41}{example.11}}
\@writefile{lot}{\contentsline {table}{\numberline {17}{\ignorespaces Club Membership}}{42}{table.17}}
\newlabel{tab:dyn}{{17}{42}{Iterating Through a Database\relax }{table.17}{}}
\@writefile{toc}{\contentsline {subsection}{\numberline {7.5}Null Values}{42}{subsection.7.5}}
\newlabel{ex:null}{{12}{43}{Null Values\relax }{example.12}{}}
\@writefile{loe}{\contentsline {section}{\numberline {12}Null Values}{43}{example.12}}
\@writefile{toc}{\contentsline {subsection}{\numberline {7.6}Editing Database Rows}{45}{subsection.7.6}}
\newlabel{sec:editdb}{{7.6}{45}{Editing Database Rows\relax }{subsection.7.6}{}}
\newlabel{ex:editdb}{{13}{45}{Editing Database Rows\relax }{example.13}{}}
\@writefile{loe}{\contentsline {section}{\numberline {13}Editing Database Rows}{45}{example.13}}
\@writefile{lot}{\contentsline {table}{\numberline {18}{\ignorespaces Student marks (with averages)}}{46}{table.18}}
\newlabel{tab:meanmarks}{{18}{46}{Editing Database Rows\relax }{table.18}{}}
\@writefile{toc}{\contentsline {subsection}{\numberline {7.7}Arithmetical Computations on Database Entries}{46}{subsection.7.7}}
\newlabel{ex:mean}{{14}{46}{Arithmetical Computations on Database Entries\relax }{example.14}{}}
\@writefile{loe}{\contentsline {section}{\numberline {14}Arithmetical Computations}{46}{example.14}}
\@writefile{lot}{\contentsline {table}{\numberline {19}{\ignorespaces Student scores (using arithmetic computations)}}{47}{table.19}}
\newlabel{tab:mean}{{19}{47}{Arithmetical Computations on Database Entries\relax }{table.19}{}}
\newlabel{ex:mailmerging}{{15}{49}{Arithmetical Computations on Database Entries\relax }{example.15}{}}
\@writefile{loe}{\contentsline {section}{\numberline {15}Mail Merging}{49}{example.15}}
\@writefile{toc}{\contentsline {subsection}{\numberline {7.8}Sorting a Database}{50}{subsection.7.8}}
\newlabel{sec:sort}{{7.8}{50}{Sorting a Database\relax }{subsection.7.8}{}}
\newlabel{ex:sort}{{16}{50}{Sorting a Database\relax }{example.16}{}}
\@writefile{loe}{\contentsline {section}{\numberline {16}Sorting a Database}{51}{example.16}}
\@writefile{lot}{\contentsline {table}{\numberline {20}{\ignorespaces Student scores (sorted by score)}}{51}{table.20}}
\newlabel{tab:sortscores}{{20}{51}{Sorting a Database\relax }{table.20}{}}
\@writefile{lot}{\contentsline {table}{\numberline {21}{\ignorespaces Student scores (sorted by name)}}{52}{table.21}}
\newlabel{tab:sortname}{{21}{52}{Sorting a Database\relax }{table.21}{}}
\@writefile{lot}{\contentsline {table}{\numberline {22}{\ignorespaces Student scores (case sensitive sort)}}{52}{table.22}}
\newlabel{tab:sortname2}{{22}{52}{Sorting a Database\relax }{table.22}{}}
\@writefile{lot}{\contentsline {table}{\numberline {23}{\ignorespaces Student scores (case ignored when sorting)}}{52}{table.23}}
\newlabel{tab:sortname3}{{23}{52}{Sorting a Database\relax }{table.23}{}}
\newlabel{ex:sortswitchargs}{{17}{52}{Sorting a Database\relax }{example.17}{}}
\@writefile{loe}{\contentsline {section}{\numberline {17}Influencing the sort order}{53}{example.17}}
\@writefile{lot}{\contentsline {table}{\numberline {24}{\ignorespaces Student scores (influencing the sort order)}}{53}{table.24}}
\newlabel{tab:influencesort}{{24}{53}{Sorting a Database\relax }{table.24}{}}
\@writefile{toc}{\contentsline {subsection}{\numberline {7.9}Saving a Database to an External File}{53}{subsection.7.9}}
\newlabel{sec:savedb}{{7.9}{53}{Saving a Database to an External File\relax }{subsection.7.9}{}}
\@writefile{toc}{\contentsline {subsection}{\numberline {7.10}Deleting or Clearing a Database}{54}{subsection.7.10}}
\newlabel{sec:deletedb}{{7.10}{54}{Deleting or Clearing a Database\relax }{subsection.7.10}{}}
\@writefile{toc}{\contentsline {subsection}{\numberline {7.11}Advanced Database Commands}{54}{subsection.7.11}}
\@writefile{toc}{\contentsline {section}{\numberline {8}Pie Charts (\textsf  {datapie} package)}{56}{section.8}}
\newlabel{ex:piechart}{{18}{58}{Pie Charts (\texorpdfstring {\sty {datapie}}{datapie} package)\relax }{example.18}{}}
\@writefile{loe}{\contentsline {section}{\numberline {18}A Pie Chart}{58}{example.18}}
\@writefile{lof}{\contentsline {figure}{\numberline {1}{\ignorespaces A pie chart}}{58}{figure.1}}
\newlabel{fig:piechart}{{1}{58}{Pie Charts (\texorpdfstring {\sty {datapie}}{datapie} package)\relax }{figure.1}{}}
\@writefile{lof}{\contentsline {figure}{\numberline {2}{\ignorespaces A pie chart (outer labels set)}}{59}{figure.2}}
\newlabel{fig:piechartouter}{{2}{59}{Pie Charts (\texorpdfstring {\sty {datapie}}{datapie} package)\relax }{figure.2}{}}
\@writefile{lof}{\contentsline {figure}{\numberline {3}{\ignorespaces A pie chart (rotation enabled)}}{59}{figure.3}}
\newlabel{fig:piechartrot}{{3}{59}{Pie Charts (\texorpdfstring {\sty {datapie}}{datapie} package)\relax }{figure.3}{}}
\newlabel{ex:cutaway}{{19}{59}{Pie Charts (\texorpdfstring {\sty {datapie}}{datapie} package)\relax }{example.19}{}}
\@writefile{loe}{\contentsline {section}{\numberline {19}Separating Segments from the Pie Chart}{59}{example.19}}
\@writefile{lof}{\contentsline {figure}{\numberline {4}{\ignorespaces A pie chart with cutaway segments}}{60}{figure.4}}
\newlabel{fig:piecutaway}{{4}{60}{Pie Charts (\texorpdfstring {\sty {datapie}}{datapie} package)\relax }{figure.4}{}}
\@writefile{lof}{\contentsline {figure}{\numberline {5}{\ignorespaces A pie chart with cutaway segments (\texttt  {cutaway=\{1-2\}})}}{60}{figure.5}}
\newlabel{fig:piecutaway2}{{5}{60}{Pie Charts (\texorpdfstring {\sty {datapie}}{datapie} package)\relax }{figure.5}{}}
\@writefile{lof}{\contentsline {figure}{\numberline {6}{\ignorespaces A pie chart with cutaway segments (\texttt  {cutaway=\{1,2\}})}}{61}{figure.6}}
\newlabel{fig:piecutaway3}{{6}{61}{Pie Charts (\texorpdfstring {\sty {datapie}}{datapie} package)\relax }{figure.6}{}}
\@writefile{toc}{\contentsline {subsection}{\numberline {8.1}Pie Chart Variables}{61}{subsection.8.1}}
\newlabel{ex:pielabels}{{20}{61}{Pie Chart Variables\relax }{example.20}{}}
\@writefile{loe}{\contentsline {section}{\numberline {20}Changing the Inner and Outer Labels}{61}{example.20}}
\@writefile{lof}{\contentsline {figure}{\numberline {7}{\ignorespaces A pie chart (changing the labels)}}{62}{figure.7}}
\newlabel{fig:piechartlabels}{{7}{62}{Pie Chart Variables\relax }{figure.7}{}}
\@writefile{toc}{\contentsline {subsection}{\numberline {8.2}Pie Chart Label Formatting}{62}{subsection.8.2}}
\newlabel{ex:pielabelformat}{{21}{62}{Pie Chart Label Formatting\relax }{example.21}{}}
\@writefile{loe}{\contentsline {section}{\numberline {21}Changing the Inner and Outer Label Format}{62}{example.21}}
\@writefile{toc}{\contentsline {subsection}{\numberline {8.3}Pie Chart Colours}{62}{subsection.8.3}}
\@writefile{lof}{\contentsline {figure}{\numberline {8}{\ignorespaces A pie chart (changing the label format)}}{63}{figure.8}}
\newlabel{fig:piechartlabelformat}{{8}{63}{Pie Chart Label Formatting\relax }{figure.8}{}}
\newlabel{ex:piecolours}{{22}{63}{Pie Chart Colours\relax }{example.22}{}}
\@writefile{loe}{\contentsline {section}{\numberline {22}Pie Segment Colours}{63}{example.22}}
\@writefile{lof}{\contentsline {figure}{\numberline {9}{\ignorespaces A pie chart (using segment colours and outline)}}{64}{figure.9}}
\newlabel{fig:piesegcolour}{{9}{64}{Pie Chart Colours\relax }{figure.9}{}}
\@writefile{toc}{\contentsline {subsection}{\numberline {8.4}Adding Extra Commands Before and After the Pie Chart}{64}{subsection.8.4}}
\newlabel{ex:piescale}{{23}{65}{Adding Extra Commands Before and After the Pie Chart\relax }{example.23}{}}
\@writefile{loe}{\contentsline {section}{\numberline {23}Adding Information to the Pie Chart}{65}{example.23}}
\@writefile{lof}{\contentsline {figure}{\numberline {10}{\ignorespaces An annotated pie chart}}{65}{figure.10}}
\newlabel{fig:pieannote}{{10}{65}{Adding Extra Commands Before and After the Pie Chart\relax }{figure.10}{}}
\@writefile{toc}{\contentsline {section}{\numberline {9}Scatter and Line Plots (\textsf  {dataplot} package)}{65}{section.9}}
\newlabel{ex:basicplot}{{24}{68}{Scatter and Line Plots (\texorpdfstring {\sty {dataplot}}{dataplot} package)\relax }{example.24}{}}
\@writefile{loe}{\contentsline {section}{\numberline {24}A Basic Graph}{68}{example.24}}
\@writefile{lof}{\contentsline {figure}{\numberline {11}{\ignorespaces A scatter plot}}{68}{figure.11}}
\newlabel{fig:basicplot}{{11}{68}{Scatter and Line Plots (\texorpdfstring {\sty {dataplot}}{dataplot} package)\relax }{figure.11}{}}
\@writefile{lof}{\contentsline {figure}{\numberline {12}{\ignorespaces A line plot}}{69}{figure.12}}
\newlabel{fig:basiclineplot}{{12}{69}{Scatter and Line Plots (\texorpdfstring {\sty {dataplot}}{dataplot} package)\relax }{figure.12}{}}
\newlabel{ex:2db}{{25}{69}{Scatter and Line Plots (\texorpdfstring {\sty {dataplot}}{dataplot} package)\relax }{example.25}{}}
\@writefile{loe}{\contentsline {section}{\numberline {25}Plotting Multiple Data Sets}{69}{example.25}}
\@writefile{lof}{\contentsline {figure}{\numberline {13}{\ignorespaces A scatter plot (multiple datasets)}}{70}{figure.13}}
\newlabel{fig:2db}{{13}{70}{Scatter and Line Plots (\texorpdfstring {\sty {dataplot}}{dataplot} package)\relax }{figure.13}{}}
\@writefile{toc}{\contentsline {subsection}{\numberline {9.1}Adding Information to the Plot}{70}{subsection.9.1}}
\@writefile{lof}{\contentsline {figure}{\numberline {14}{\ignorespaces A scatter plot (with a legend)}}{71}{figure.14}}
\newlabel{fig:legend}{{14}{71}{Scatter and Line Plots (\texorpdfstring {\sty {dataplot}}{dataplot} package)\relax }{figure.14}{}}
\newlabel{ex:addtoplot}{{26}{71}{Adding Information to the Plot\relax }{example.26}{}}
\@writefile{loe}{\contentsline {section}{\numberline {26}Adding Information to a Plot}{71}{example.26}}
\@writefile{lof}{\contentsline {figure}{\numberline {15}{\ignorespaces A scatter plot (using the end plot hook to annotate the plot)}}{72}{figure.15}}
\newlabel{fig:annote}{{15}{72}{Adding Information to the Plot\relax }{figure.15}{}}
\@writefile{toc}{\contentsline {subsection}{\numberline {9.2}Global Plot Settings}{72}{subsection.9.2}}
\@writefile{toc}{\contentsline {subsubsection}{\numberline {9.2.1}Lengths}{72}{subsubsection.9.2.1}}
\@writefile{toc}{\contentsline {subsubsection}{\numberline {9.2.2}Counters}{73}{subsubsection.9.2.2}}
\@writefile{toc}{\contentsline {subsubsection}{\numberline {9.2.3}Macros}{73}{subsubsection.9.2.3}}
\@writefile{toc}{\contentsline {subsection}{\numberline {9.3}Adding to a Plot Stream}{74}{subsection.9.3}}
\newlabel{ex:plotstream}{{27}{74}{Adding to a Plot Stream\relax }{example.27}{}}
\@writefile{loe}{\contentsline {section}{\numberline {27}Adding to a Plot Stream}{74}{example.27}}
\@writefile{lof}{\contentsline {figure}{\numberline {16}{\ignorespaces Adding to a plot stream}}{75}{figure.16}}
\newlabel{fig:plotstream}{{16}{75}{Adding to a Plot Stream\relax }{figure.16}{}}
\newlabel{ex:multikey}{{28}{75}{Adding to a Plot Stream\relax }{example.28}{}}
\@writefile{loe}{\contentsline {section}{\numberline {28}Plotting Multiple Keys in the Same Database}{75}{example.28}}
\@writefile{lof}{\contentsline {figure}{\numberline {17}{\ignorespaces Time to growth data (plotting from the same database using different keys)}}{76}{figure.17}}
\newlabel{fig:multikey}{{17}{76}{Adding to a Plot Stream\relax }{figure.17}{}}
\@writefile{toc}{\contentsline {section}{\numberline {10}Bar Charts (\textsf  {databar} package)}{77}{section.10}}
\newlabel{ex:barchart}{{29}{78}{Bar Charts (\texorpdfstring {\sty {databar}}{databar} package)\relax }{example.29}{}}
\@writefile{loe}{\contentsline {section}{\numberline {29}A Basic Bar Chart}{78}{example.29}}
\@writefile{toc}{\contentsline {subsection}{\numberline {10.1}Changing the Appearance of a Bar Chart}{78}{subsection.10.1}}
\@writefile{lof}{\contentsline {figure}{\numberline {18}{\ignorespaces A basic bar chart}}{79}{figure.18}}
\newlabel{fig:barchart}{{18}{79}{Bar Charts (\texorpdfstring {\sty {databar}}{databar} package)\relax }{figure.18}{}}
\newlabel{ex:annotebarchart}{{30}{81}{Changing the Appearance of a Bar Chart\relax }{example.30}{}}
\@writefile{loe}{\contentsline {section}{\numberline {30}A Labelled Bar Chart}{81}{example.30}}
\@writefile{lof}{\contentsline {figure}{\numberline {19}{\ignorespaces A bar chart (labelled)}}{81}{figure.19}}
\newlabel{fig:annotebarchart}{{19}{81}{Changing the Appearance of a Bar Chart\relax }{figure.19}{}}
\newlabel{ex:profit}{{31}{82}{Changing the Appearance of a Bar Chart\relax }{example.31}{}}
\@writefile{loe}{\contentsline {section}{\numberline {31}Profit/Loss Bar Chart}{82}{example.31}}
\@writefile{lof}{\contentsline {figure}{\numberline {20}{\ignorespaces Profits for 2000--2003 (a horizontal bar chart)}}{83}{figure.20}}
\newlabel{fig:profits}{{20}{83}{Changing the Appearance of a Bar Chart\relax }{figure.20}{}}
\newlabel{ex:multibar}{{32}{83}{Changing the Appearance of a Bar Chart\relax }{example.32}{}}
\@writefile{loe}{\contentsline {section}{\numberline {32}A Multi-Bar Chart}{83}{example.32}}
\@writefile{lof}{\contentsline {figure}{\numberline {21}{\ignorespaces Student marks (a multi-bar chart)}}{84}{figure.21}}
\newlabel{fig:multibar}{{21}{84}{Changing the Appearance of a Bar Chart\relax }{figure.21}{}}
\@writefile{lof}{\contentsline {figure}{\numberline {22}{\ignorespaces Student marks (annotating a bar chart)}}{85}{figure.22}}
\newlabel{fig:multibarmean}{{22}{85}{Changing the Appearance of a Bar Chart\relax }{figure.22}{}}
\@writefile{toc}{\contentsline {section}{\numberline {11}Converting a {\rmfamily  B\kern -.05em\textsc  {i\kern -.025em b}\kern -.08emT\kern -.1667em\lower .7ex\hbox {E}\kern -.125emX} database into a \textsf  {datatool} database (\textsf  {databib} package)}{85}{section.11}}
\newlabel{sec:databib}{{11}{85}{Converting a \texorpdfstring {\BibTeX }{BibTeX} database into a \texorpdfstring {\sty {datatool}}{datatool} database (\texorpdfstring {\sty {databib}}{databib} package)\relax }{section.11}{}}
\@writefile{toc}{\contentsline {subsection}{\numberline {11.1}{\rmfamily  B\kern -.05em\textsc  {i\kern -.025em b}\kern -.08emT\kern -.1667em\lower .7ex\hbox {E}\kern -.125emX}: An Overview}{86}{subsection.11.1}}
\newlabel{sec:bibtex}{{11.1}{86}{\texorpdfstring {\BibTeX }{BibTeX}: An Overview\relax }{subsection.11.1}{}}
\@writefile{toc}{\contentsline {subsubsection}{\numberline {11.1.1}{\rmfamily  B\kern -.05em\textsc  {i\kern -.025em b}\kern -.08emT\kern -.1667em\lower .7ex\hbox {E}\kern -.125emX} database}{86}{subsubsection.11.1.1}}
\citation{Goossens}
\@writefile{toc}{\contentsline {subsection}{\numberline {11.2}Loading a \textsf  {databib} database}{88}{subsection.11.2}}
\newlabel{sec:loadbbl}{{11.2}{88}{Loading a \texorpdfstring {\sty {databib}}{databib} database\relax }{subsection.11.2}{}}
\@writefile{toc}{\contentsline {subsection}{\numberline {11.3}Displaying a \textsf  {databib} database}{89}{subsection.11.3}}
\newlabel{sec:thebib}{{11.3}{89}{Displaying a \texorpdfstring {\sty {databib}}{databib} database\relax }{subsection.11.3}{}}
\newlabel{ex:bibsince2000}{{33}{90}{Displaying a \texorpdfstring {\sty {databib}}{databib} database\relax }{example.33}{}}
\@writefile{loe}{\contentsline {section}{\numberline {33}Creating a list of publications since a given year}{90}{example.33}}
\newlabel{ex:top10bib}{{34}{91}{Displaying a \texorpdfstring {\sty {databib}}{databib} database\relax }{example.34}{}}
\@writefile{loe}{\contentsline {section}{\numberline {34}Creating a list of my 10 most recent publications}{91}{example.34}}
\@writefile{toc}{\contentsline {subsection}{\numberline {11.4}Changing the bibliography style}{92}{subsection.11.4}}
\newlabel{sec:bibstyle}{{11.4}{92}{Changing the bibliography style\relax }{subsection.11.4}{}}
\@writefile{toc}{\contentsline {subsubsection}{\numberline {11.4.1}Modifying an existing style}{92}{subsubsection.11.4.1}}
\newlabel{sec:modbibstyle}{{11.4.1}{92}{Modifying an existing style\relax }{subsubsection.11.4.1}{}}
\newlabel{ex:compactbib}{{35}{94}{Modifying an existing style\relax }{example.35}{}}
\@writefile{loe}{\contentsline {section}{\numberline {35}Compact bibliography}{94}{example.35}}
\newlabel{ex:highlightauthor}{{36}{94}{Modifying an existing style\relax }{example.36}{}}
\@writefile{loe}{\contentsline {section}{\numberline {36}Highlighting a given author}{94}{example.36}}
\@writefile{toc}{\contentsline {subsection}{\numberline {11.5}Iterating through a \textsf  {databib} database}{95}{subsection.11.5}}
\newlabel{sec:foreachbib}{{11.5}{95}{Iterating through a \texorpdfstring {\sty {databib}}{databib} database\relax }{subsection.11.5}{}}
\newlabel{ex:jcbib}{{37}{96}{Iterating through a \texorpdfstring {\sty {databib}}{databib} database\relax }{example.37}{}}
\@writefile{loe}{\contentsline {section}{\numberline {37}Separate List of Journals and Conference Papers}{96}{example.37}}
\@writefile{toc}{\contentsline {subsection}{\numberline {11.6}Multiple Bibliographies}{97}{subsection.11.6}}
\newlabel{sec:multibib}{{11.6}{97}{Multiple Bibliographies\relax }{subsection.11.6}{}}
\newlabel{ex:multibib}{{38}{98}{Multiple Bibliographies\relax }{example.38}{}}
\@writefile{loe}{\contentsline {section}{\numberline {38}Multiple Bibliographies}{98}{example.38}}
\@writefile{toc}{\contentsline {section}{\numberline {12}Referencing People (\textsf  {person} package)}{99}{section.12}}
\newlabel{sec:person}{{12}{99}{Referencing People (\sty {person} package)\relax }{section.12}{}}
\@writefile{toc}{\contentsline {subsection}{\numberline {12.1}Defining and Undefining People}{99}{subsection.12.1}}
\@writefile{toc}{\contentsline {subsection}{\numberline {12.2}Displaying Information}{100}{subsection.12.2}}
\newlabel{sec:refperson}{{12.2}{100}{Displaying Information\relax }{subsection.12.2}{}}
\newlabel{ex:memorial}{{39}{101}{Displaying Information\relax }{example.39}{}}
\@writefile{loe}{\contentsline {section}{\numberline {39}Order of Service (Memorial)}{101}{example.39}}
\newlabel{ex:baptism}{{40}{103}{Displaying Information\relax }{example.40}{}}
\@writefile{loe}{\contentsline {section}{\numberline {40}Order of Service (Baptism)}{103}{example.40}}
\newlabel{ex:personmerge}{{41}{103}{Displaying Information\relax }{example.41}{}}
\@writefile{loe}{\contentsline {section}{\numberline {41}Mail Merging Using Appropriate Gender}{103}{example.41}}
\@writefile{toc}{\contentsline {subsection}{\numberline {12.3}Advanced Commands}{104}{subsection.12.3}}
\@writefile{toc}{\contentsline {subsubsection}{\numberline {12.3.1}Conditionals}{104}{subsubsection.12.3.1}}
\@writefile{toc}{\contentsline {subsubsection}{\numberline {12.3.2}Iterating Through Defined People}{105}{subsubsection.12.3.2}}
\@writefile{toc}{\contentsline {subsubsection}{\numberline {12.3.3}Accessing Individual Information}{105}{subsubsection.12.3.3}}
\@writefile{toc}{\contentsline {section}{\numberline {13}datatool.sty}{106}{section.13}}
\newlabel{sec:code:datatool}{{13}{106}{datatool.sty\relax }{section.13}{}}
\@writefile{toc}{\contentsline {subsection}{\numberline {13.1}Package Declaration}{106}{subsection.13.1}}
\@writefile{toc}{\contentsline {subsection}{\numberline {13.2}Package Options}{106}{subsection.13.2}}
\@writefile{toc}{\contentsline {subsection}{\numberline {13.3}Determining Data Types}{113}{subsection.13.3}}
\newlabel{src:dtlcompare}{{13.3}{118}{Determining Data Types\relax }{subsection.13.3}{}}
\@writefile{toc}{\contentsline {subsection}{\numberline {13.4}ifthen Conditionals}{134}{subsection.13.4}}
\@writefile{toc}{\contentsline {subsection}{\numberline {13.5}Defining New Databases}{138}{subsection.13.5}}
\@writefile{toc}{\contentsline {subsection}{\numberline {13.6}Accessing Data}{150}{subsection.13.6}}
\@writefile{toc}{\contentsline {subsection}{\numberline {13.7}Iterating Through Databases}{156}{subsection.13.7}}
\newlabel{sec:code:loops}{{13.7}{156}{Iterating Through Databases\relax }{subsection.13.7}{}}
\@writefile{toc}{\contentsline {subsection}{\numberline {13.8}Displaying Database}{175}{subsection.13.8}}
\@writefile{toc}{\contentsline {subsection}{\numberline {13.9}Editing Databases}{180}{subsection.13.9}}
\@writefile{toc}{\contentsline {subsection}{\numberline {13.10}Database Functions}{183}{subsection.13.10}}
\@writefile{toc}{\contentsline {subsection}{\numberline {13.11}Sorting Databases}{193}{subsection.13.11}}
\@writefile{toc}{\contentsline {subsection}{\numberline {13.12}Saving a database to an external file}{200}{subsection.13.12}}
\@writefile{toc}{\contentsline {subsection}{\numberline {13.13}Loading a database from an external file}{202}{subsection.13.13}}
\@writefile{toc}{\contentsline {subsection}{\numberline {13.14}General List Utilities}{209}{subsection.13.14}}
\@writefile{toc}{\contentsline {subsection}{\numberline {13.15}General Token Utilities}{212}{subsection.13.15}}
\@writefile{toc}{\contentsline {subsection}{\numberline {13.16}Floating Point Arithmetic}{212}{subsection.13.16}}
\@writefile{toc}{\contentsline {subsection}{\numberline {13.17}String Macros}{220}{subsection.13.17}}
\@writefile{toc}{\contentsline {subsection}{\numberline {13.18}Currencies}{226}{subsection.13.18}}
\@writefile{toc}{\contentsline {subsection}{\numberline {13.19}Debugging commands}{227}{subsection.13.19}}
\@writefile{toc}{\contentsline {section}{\numberline {14}datapie.sty}{228}{section.14}}
\@writefile{toc}{\contentsline {section}{\numberline {15}dataplot.sty}{236}{section.15}}
\@writefile{toc}{\contentsline {section}{\numberline {16}databar.sty}{254}{section.16}}
\@writefile{toc}{\contentsline {section}{\numberline {17}databib.sty}{271}{section.17}}
\newlabel{sec:src:databib}{{17}{271}{databib.sty\relax }{section.17}{}}
\@writefile{toc}{\contentsline {subsection}{\numberline {17.1}Package Declaration}{271}{subsection.17.1}}
\@writefile{toc}{\contentsline {subsection}{\numberline {17.2}Package Options}{271}{subsection.17.2}}
\@writefile{toc}{\contentsline {subsection}{\numberline {17.3}Loading BBL file}{271}{subsection.17.3}}
\@writefile{toc}{\contentsline {subsection}{\numberline {17.4}Predefined text}{272}{subsection.17.4}}
\newlabel{sec:src:bibnames}{{17.4}{272}{Predefined text\relax }{subsection.17.4}{}}
\@writefile{toc}{\contentsline {subsection}{\numberline {17.5}Displaying the bibliography}{272}{subsection.17.5}}
\newlabel{sec:src:displaybib}{{17.5}{272}{Displaying the bibliography\relax }{subsection.17.5}{}}
\@writefile{toc}{\contentsline {subsubsection}{\numberline {17.5.1}ifthen conditionals}{283}{subsubsection.17.5.1}}
\@writefile{toc}{\contentsline {subsection}{\numberline {17.6}Bibliography Style Macros}{286}{subsection.17.6}}
\newlabel{sec:src:bibstyle}{{17.6}{286}{Bibliography Style Macros\relax }{subsection.17.6}{}}
\@writefile{toc}{\contentsline {subsection}{\numberline {17.7}Bibliography Styles}{289}{subsection.17.7}}
\@writefile{toc}{\contentsline {subsection}{\numberline {17.8}Multiple Bibliographies}{304}{subsection.17.8}}
\@writefile{toc}{\contentsline {section}{\numberline {18}person.sty}{306}{section.18}}
\newlabel{sec:code:person}{{18}{306}{person.sty\relax }{section.18}{}}
\@writefile{toc}{\contentsline {subsection}{\numberline {18.1}Package Declaration}{306}{subsection.18.1}}
\@writefile{toc}{\contentsline {subsection}{\numberline {18.2}Defining People}{306}{subsection.18.2}}
\@writefile{toc}{\contentsline {subsection}{\numberline {18.3}Remove People}{307}{subsection.18.3}}
\@writefile{toc}{\contentsline {subsection}{\numberline {18.4}Conditionals and Loops}{308}{subsection.18.4}}
\@writefile{toc}{\contentsline {subsection}{\numberline {18.5}Predefined Words}{310}{subsection.18.5}}
\newlabel{sec:code:peoplenames}{{18.5}{310}{Predefined Words\relax }{subsection.18.5}{}}
\@writefile{toc}{\contentsline {subsection}{\numberline {18.6}Displaying Information}{312}{subsection.18.6}}
\@writefile{toc}{\contentsline {subsection}{\numberline {18.7}Extracting Information}{319}{subsection.18.7}}
\bibcite{Goossens}{1}
\@writefile{toc}{\contentsline {section}{References}{320}{section*.3}}
\@writefile{toc}{\contentsline {section}{\numberline {19}References}{320}{section.19}}
\@writefile{toc}{\contentsline {section}{Acknowledgements}{320}{DTLbibrow.103.bib.1}}
\@writefile{toc}{\contentsline {section}{Change History}{320}{section*.5}}
\providecommand\HD@SetMacroIndent[1]{}
\HD@SetMacroIndent{0}
