\contentsline {figure}{\numberline {1}{\ignorespaces A pie chart}}{58}{figure.1}
\contentsline {figure}{\numberline {2}{\ignorespaces A pie chart (outer labels set)}}{59}{figure.2}
\contentsline {figure}{\numberline {3}{\ignorespaces A pie chart (rotation enabled)}}{59}{figure.3}
\contentsline {figure}{\numberline {4}{\ignorespaces A pie chart with cutaway segments}}{60}{figure.4}
\contentsline {figure}{\numberline {5}{\ignorespaces A pie chart with cutaway segments (\texttt {cutaway=\{1-2\}})}}{60}{figure.5}
\contentsline {figure}{\numberline {6}{\ignorespaces A pie chart with cutaway segments (\texttt {cutaway=\{1,2\}})}}{61}{figure.6}
\contentsline {figure}{\numberline {7}{\ignorespaces A pie chart (changing the labels)}}{62}{figure.7}
\contentsline {figure}{\numberline {8}{\ignorespaces A pie chart (changing the label format)}}{63}{figure.8}
\contentsline {figure}{\numberline {9}{\ignorespaces A pie chart (using segment colours and outline)}}{64}{figure.9}
\contentsline {figure}{\numberline {10}{\ignorespaces An annotated pie chart}}{65}{figure.10}
\contentsline {figure}{\numberline {11}{\ignorespaces A scatter plot}}{68}{figure.11}
\contentsline {figure}{\numberline {12}{\ignorespaces A line plot}}{69}{figure.12}
\contentsline {figure}{\numberline {13}{\ignorespaces A scatter plot (multiple datasets)}}{70}{figure.13}
\contentsline {figure}{\numberline {14}{\ignorespaces A scatter plot (with a legend)}}{71}{figure.14}
\contentsline {figure}{\numberline {15}{\ignorespaces A scatter plot (using the end plot hook to annotate the plot)}}{72}{figure.15}
\contentsline {figure}{\numberline {16}{\ignorespaces Adding to a plot stream}}{75}{figure.16}
\contentsline {figure}{\numberline {17}{\ignorespaces Time to growth data (plotting from the same database using different keys)}}{76}{figure.17}
\contentsline {figure}{\numberline {18}{\ignorespaces A basic bar chart}}{79}{figure.18}
\contentsline {figure}{\numberline {19}{\ignorespaces A bar chart (labelled)}}{81}{figure.19}
\contentsline {figure}{\numberline {20}{\ignorespaces Profits for 2000--2003 (a horizontal bar chart)}}{83}{figure.20}
\contentsline {figure}{\numberline {21}{\ignorespaces Student marks (a multi-bar chart)}}{84}{figure.21}
\contentsline {figure}{\numberline {22}{\ignorespaces Student marks (annotating a bar chart)}}{85}{figure.22}
