\relax 
\ifx\hyper@anchor\@undefined
\global \let \oldcontentsline\contentsline
\gdef \contentsline#1#2#3#4{\oldcontentsline{#1}{#2}{#3}}
\global \let \oldnewlabel\newlabel
\gdef \newlabel#1#2{\newlabelxx{#1}#2}
\gdef \newlabelxx#1#2#3#4#5#6{\oldnewlabel{#1}{{#2}{#3}}}
\AtEndDocument{\let \contentsline\oldcontentsline
\let \newlabel\oldnewlabel}
\else
\global \let \hyper@last\relax 
\fi

\providecommand\BKM@entry[2]{}
\BKM@entry{id=1,dest={746F63312E31},srcline={60}}{436F6E74656E7473}
\BKM@entry{id=2,dest={73656374696F6E2E31},srcline={69}}{3120496E74726F64756374696F6E}
\BKM@entry{id=3,dest={73656374696F6E2E32},srcline={71}}{32205573616765}
\BKM@entry{id=4,dest={73756273656374696F6E2E322E31},srcline={73}}{322E31204F7074696F6E73}
\BKM@entry{id=5,dest={73756273756273656374696F6E2E322E312E31},srcline={87}}{322E312E31204F7074696F6E7320666F722074797065206F66206261636B207265666572656E636573}
\@writefile{toc}{\contentsline {section}{\numberline {1}Introduction}{1}{section.1}}
\@writefile{toc}{\contentsline {section}{\numberline {2}Usage}{1}{section.2}}
\@writefile{toc}{\contentsline {subsection}{\numberline {2.1}Options}{1}{subsection.2.1}}
\BKM@entry{id=6,dest={73756273756273656374696F6E2E322E312E32},srcline={117}}{322E312E32204C616E6775616765206F7074696F6E73}
\BKM@entry{id=7,dest={73756273756273656374696F6E2E322E312E33},srcline={126}}{322E312E33204F74686572206F7074696F6E73}
\BKM@entry{id=8,dest={73756273656374696F6E2E322E32},srcline={144}}{322E3220446574656374696E672074686520656E64206F662061206269626C696F67726170687920656E747279}
\@writefile{toc}{\contentsline {subsubsection}{\numberline {2.1.1}Options for type of back references}{2}{subsubsection.2.1.1}}
\@writefile{toc}{\contentsline {subsubsection}{\numberline {2.1.2}Language options}{2}{subsubsection.2.1.2}}
\@writefile{toc}{\contentsline {subsubsection}{\numberline {2.1.3}Other options}{2}{subsubsection.2.1.3}}
\@writefile{toc}{\contentsline {subsection}{\numberline {2.2}Detecting the end of a bibliography entry}{2}{subsection.2.2}}
\BKM@entry{id=9,dest={73756273656374696F6E2E322E33},srcline={190}}{322E3320466F726D617474696E67206F6620746865206261636B207265666572656E636573206C697374}
\BKM@entry{id=10,dest={73756273756273656374696F6E2E322E332E31},srcline={202}}{322E332E3120466F726D617474696E6720686F6F6B205C3133346261636B726566}
\BKM@entry{id=11,dest={73756273756273656374696F6E2E322E332E32},srcline={210}}{322E332E3220466F726D617474696E6720686F6F6B205C3133346261636B726566616C74}
\@writefile{toc}{\contentsline {subsection}{\numberline {2.3}Formatting of the back references list}{3}{subsection.2.3}}
\@writefile{toc}{\contentsline {subsubsection}{\numberline {2.3.1}Formatting hook \cs  {backref}}{3}{subsubsection.2.3.1}}
\@writefile{toc}{\contentsline {subsubsection}{\numberline {2.3.2}Formatting hook \cs  {backrefalt}}{3}{subsubsection.2.3.2}}
\BKM@entry{id=12,dest={73756273756273656374696F6E2E322E332E33},srcline={260}}{322E332E3320526566696E656D656E74205C3133346261636B726566656E747279636F756E74}
\BKM@entry{id=13,dest={73656374696F6E2E33},srcline={285}}{3320546865206D6163726F73}
\BKM@entry{id=14,dest={73756273656374696F6E2E332E31},srcline={290}}{332E31205061636B616765206964656E74696669636174696F6E}
\BKM@entry{id=15,dest={73756273656374696F6E2E332E32},srcline={295}}{332E32204F7074696F6E73}
\BKM@entry{id=16,dest={73756273756273656374696F6E2E332E322E31},srcline={312}}{332E322E31204F7074696F6E20766572626F7365}
\BKM@entry{id=17,dest={73756273756273656374696F6E2E332E322E32},srcline={325}}{332E322E32204F7074696F6E7320666F7220776179206F6620776F726B696E67}
\@writefile{toc}{\contentsline {subsubsection}{\numberline {2.3.3}Refinement \cs  {backrefentrycount}}{4}{subsubsection.2.3.3}}
\@writefile{toc}{\contentsline {section}{\numberline {3}The macros}{4}{section.3}}
\@writefile{toc}{\contentsline {subsection}{\numberline {3.1}Package identification}{4}{subsection.3.1}}
\@writefile{toc}{\contentsline {subsection}{\numberline {3.2}Options}{4}{subsection.3.2}}
\@writefile{toc}{\contentsline {subsubsection}{\numberline {3.2.1}Option verbose}{4}{subsubsection.3.2.1}}
\BKM@entry{id=18,dest={73756273756273656374696F6E2E332E322E33},srcline={363}}{332E322E33204C616E6775616765206F7074696F6E73}
\@writefile{toc}{\contentsline {subsubsection}{\numberline {3.2.2}Options for way of working}{5}{subsubsection.3.2.2}}
\@writefile{toc}{\contentsline {subsubsection}{\numberline {3.2.3}Language options}{5}{subsubsection.3.2.3}}
\BKM@entry{id=19,dest={73756273756273656374696F6E2E332E322E34},srcline={470}}{332E322E342050726F63657373206F7074696F6E73}
\BKM@entry{id=20,dest={73756273656374696F6E2E332E33},srcline={494}}{332E3320546865206269626C696F677261706879}
\@writefile{toc}{\contentsline {subsubsection}{\numberline {3.2.4}Process options}{7}{subsubsection.3.2.4}}
\@writefile{toc}{\contentsline {subsection}{\numberline {3.3}The bibliography}{7}{subsection.3.3}}
\BKM@entry{id=21,dest={73756273656374696F6E2E332E34},srcline={583}}{332E342052656164696E67202E6272662066696C65}
\@writefile{toc}{\contentsline {subsection}{\numberline {3.4}Reading .brf file}{8}{subsection.3.4}}
\BKM@entry{id=22,dest={73756273656374696F6E2E332E35},srcline={813}}{332E3520496E697469616C697A6174696F6E}
\@writefile{toc}{\contentsline {subsection}{\numberline {3.5}Initialization}{11}{subsection.3.5}}
\BKM@entry{id=23,dest={73756273656374696F6E2E332E36},srcline={863}}{332E3620436F6C6C656374696E67206261636B206369746520696E666F726D6174696F6E73}
\@writefile{toc}{\contentsline {subsection}{\numberline {3.6}Collecting back cite informations}{12}{subsection.3.6}}
\BKM@entry{id=24,dest={73756273656374696F6E2E332E37},srcline={915}}{332E3720526572756E207761726E696E67}
\@writefile{toc}{\contentsline {subsection}{\numberline {3.7}Rerun warning}{13}{subsection.3.7}}
\providecommand\HD@SetMacroIndent[1]{}
\HD@SetMacroIndent{428}
\BKM@entry{id=25,gotor={6D616E75616C2E706466},view={XYZ null null null},color={0 0 1},srcline={63}}{4879706572726566206D616E75616C}
\BKM@entry{id=26,open,gotor={524541444D452E706466},view={XYZ null null null},color={0 0 1},srcline={63}}{524541444D45}
\BKM@entry{id=27,open,gotor={4368616E67654C6F672E706466},view={XYZ null null null},color={0 0 1},srcline={63}}{4368616E67654C6F67}
\BKM@entry{id=28,open,gotor={6F7074696F6E732E706466},view={XYZ null null null},color={0 0 1},srcline={63}}{4F7074696F6E73}
\BKM@entry{id=29,open,gotor={736C696465732E706466},view={XYZ null null null},color={0 0 1},srcline={63}}{426F6F6B6D61726B2074616C6B2C20736C69646573}
\BKM@entry{id=30,gotor={70617065722E706466},view={XYZ null null null},color={0 0 1},srcline={63}}{426F6F6B6D61726B2074616C6B2C207061706572}
\BKM@entry{id=31,open,gotor={68797065727265662E706466},view={XYZ null null null},color={0 0 1},srcline={63}}{536F75726365733A2068797065727265662E647478}
\BKM@entry{id=32,gotor={6261636B7265662E706466},view={XYZ null null null},color={0 0 1},srcline={63}}{6261636B7265662E647478}
\BKM@entry{id=33,gotor={6E616D657265662E706466},view={XYZ null null null},color={0 0 1},srcline={63}}{6E616D657265662E647478}
