\relax 
\ifx\hyper@anchor\@undefined
\global \let \oldcontentsline\contentsline
\gdef \contentsline#1#2#3#4{\oldcontentsline{#1}{#2}{#3}}
\global \let \oldnewlabel\newlabel
\gdef \newlabel#1#2{\newlabelxx{#1}#2}
\gdef \newlabelxx#1#2#3#4#5#6{\oldnewlabel{#1}{{#2}{#3}}}
\AtEndDocument{\let \contentsline\oldcontentsline
\let \newlabel\oldnewlabel}
\else
\global \let \hyper@last\relax 
\fi

\providecommand*\HyPL@Entry[1]{}
\HyPL@Entry{0 << /S /D >> }
\@writefile{toc}{\contentsline {section}{\numberline {1}Introduction}{1}{section*.1}}
\@writefile{toc}{\contentsline {section}{\numberline {2}Usage}{1}{section*.1}}
\newlabel{1@xvr}{{}{1}{Usage\relax }{section*.1}{}}
\newlabel{1@vr}{{}{1}{Usage\relax }{section*.1}{}}
\@writefile{lot}{\contentsline {table}{\numberline {1}{\ignorespaces \pkgname  {savetrees} package options for enabling/disabling space-saving techniques}}{2}{table.caption.2}}
\providecommand*\caption@xref[2]{\@setref\relax\@undefined{#1}}
\newlabel{tbl:st-options}{{Table\nobreakspace  {}1}{2}{\pkgname {savetrees} package options for enabling/disabling space-saving techniques\relax }{table.caption.2}{}}
\@writefile{lot}{\contentsline {table}{\numberline {2}{\ignorespaces \pkgname  {savetrees} package options for refining the way space is saved}}{3}{table.caption.3}}
\newlabel{tbl:st-refinements}{{Table\nobreakspace  {}2}{3}{\pkgname {savetrees} package options for refining the way space is saved\relax }{table.caption.3}{}}
\newlabel{2@xvr}{{}{3}{Usage\relax }{table.caption.2}{}}
\newlabel{2@vr}{{}{3}{Usage\relax }{table.caption.2}{}}
\@writefile{toc}{\contentsline {section}{\numberline {3}Abbreviating bibliographic information}{4}{table.caption.3}}
\@writefile{toc}{\contentsline {section}{\numberline {4}Implementation of \texttt  {savetrees.sty}}{5}{table.caption.3}}
\newlabel{sec:savetrees.sty}{{Section\nobreakspace  {}4}{5}{Implementation of \texttt {savetrees.sty}\relax }{table.caption.3}{}}
\@writefile{toc}{\contentsline {subsection}{\numberline {4.1}Default values}{5}{section*.4}}
\@writefile{toc}{\contentsline {subsection}{\numberline {4.2}Option processing}{6}{section*.4}}
\newlabel{sec:options}{{Section\nobreakspace  {}4.2}{6}{Option processing\relax }{section*.4}{}}
\@writefile{toc}{\contentsline {paragraph}{Enabling/disabling space-saving techniques}{6}{section*.5}}
\@writefile{toc}{\contentsline {paragraph}{Parameter tuning}{8}{section*.6}}
\@writefile{toc}{\contentsline {paragraph}{Obsolete options}{9}{section*.7}}
\@writefile{toc}{\contentsline {subsection}{\numberline {4.3}Section titles}{10}{section*.7}}
\@writefile{toc}{\contentsline {subsection}{\numberline {4.4}Page margins}{10}{section*.7}}
\@writefile{toc}{\contentsline {subsection}{\numberline {4.5}List spacing}{10}{section*.7}}
\@writefile{toc}{\contentsline {subsection}{\numberline {4.6}Float placement}{11}{section*.7}}
\@writefile{toc}{\contentsline {subsection}{\numberline {4.7}Paragraph indentation}{12}{section*.7}}
\@writefile{toc}{\contentsline {subsection}{\numberline {4.8}Document title formatting}{12}{section*.7}}
\@writefile{toc}{\contentsline {subsection}{\numberline {4.9}Interline spacing}{12}{section*.7}}
\@writefile{toc}{\contentsline {subsection}{\numberline {4.10}Paragraph looseness}{12}{section*.7}}
\@writefile{toc}{\contentsline {subsection}{\numberline {4.11}Font width}{13}{section*.7}}
\@writefile{toc}{\contentsline {subsection}{\numberline {4.12}Inter-character spacing}{13}{section*.7}}
\@writefile{toc}{\contentsline {subsection}{\numberline {4.13}Inter-word spacing}{13}{section*.7}}
\@writefile{toc}{\contentsline {subsection}{\numberline {4.14}Bibliography formatting}{13}{section*.7}}
\@writefile{toc}{\contentsline {subsection}{\numberline {4.15}Bibliographic notes}{14}{section*.7}}
\newlabel{sec:bibliographic-notes}{{Section\nobreakspace  {}4.15}{14}{Bibliographic notes\relax }{section*.7}{}}
\newlabel{code:stbn-begin}{{258}{14}{Bibliographic notes\relax }{section*.7}{}}
\newlabel{code:stbn-end}{{262}{15}{Bibliographic notes\relax }{section*.7}{}}
\@writefile{toc}{\contentsline {section}{\numberline {5}Implementation of \texttt  {savetrees.bst}}{15}{section*.7}}
\newlabel{sec:savetrees.bst}{{Section\nobreakspace  {}5}{15}{Implementation of \texttt {savetrees.bst}\relax }{section*.7}{}}
\@writefile{toc}{\contentsline {section}{\numberline {A}Average character widths of common fonts}{16}{section*.7}}
\@writefile{toc}{\contentsline {paragraph}{Question:}{16}{section*.8}}
\@writefile{toc}{\contentsline {paragraph}{Answer:}{16}{section*.9}}
\@writefile{lot}{\contentsline {table}{\numberline {3}{\ignorespaces Common fonts sorted by increasing width\relax }}{16}{table.caption.10}}
\newlabel{tbl:font-widths}{{Table\nobreakspace  {}3}{16}{Common fonts sorted by increasing width\relax \relax }{table.caption.10}{}}
\@writefile{toc}{\contentsline {section}{\numberline {B}Gallery of space-saving techniques}{17}{table.caption.10}}
\newlabel{sec:gallery}{{Appendix\nobreakspace  {}B}{17}{Gallery of space-saving techniques\relax }{table.caption.10}{}}
\newlabel{3@xvr}{{}{17}{Gallery of space-saving techniques\relax }{table.caption.10}{}}
\newlabel{3@vr}{{}{17}{Gallery of space-saving techniques\relax }{table.caption.10}{}}
\@writefile{lof}{\contentsline {figure}{\numberline {1}{\ignorespaces Effect of the \texttt  {lists} option\relax }}{17}{figure.caption.11}}
\@writefile{lof}{\contentsline {subfigure}{\numberline{(a)}{\ignorespaces {\texttt {lists=normal}}}}{17}{figure.caption.11}}
\@writefile{lof}{\contentsline {subfigure}{\numberline{(b)}{\ignorespaces {\texttt {lists=tight}}}}{17}{figure.caption.11}}
\newlabel{fig:ex-lists}{{Figure\nobreakspace  {}1}{17}{Effect of the \texttt {lists} option\relax \relax }{figure.caption.11}{}}
\@writefile{lof}{\contentsline {figure}{\numberline {2}{\ignorespaces Effect of the \texttt  {wordspacing} option\relax }}{17}{figure.caption.12}}
\@writefile{lof}{\contentsline {subfigure}{\numberline{(a)}{\ignorespaces {\texttt {wordspacing=normal}}}}{17}{figure.caption.12}}
\@writefile{lof}{\contentsline {subfigure}{\numberline{(b)}{\ignorespaces {\texttt {wordspacing=tight}}}}{17}{figure.caption.12}}
\newlabel{fig:ex-wordspacing}{{Figure\nobreakspace  {}2}{17}{Effect of the \texttt {wordspacing} option\relax \relax }{figure.caption.12}{}}
\@writefile{lof}{\contentsline {figure}{\numberline {3}{\ignorespaces Effect of the \texttt  {tracking} option\relax }}{18}{figure.caption.13}}
\@writefile{lof}{\contentsline {subfigure}{\numberline{(a)}{\ignorespaces {\texttt {tracking=normal}}}}{18}{figure.caption.13}}
\@writefile{lof}{\contentsline {subfigure}{\numberline{(b)}{\ignorespaces {\texttt {tracking=tight}}}}{18}{figure.caption.13}}
\newlabel{fig:ex-tracking}{{Figure\nobreakspace  {}3}{18}{Effect of the \texttt {tracking} option\relax \relax }{figure.caption.13}{}}
\@writefile{lof}{\contentsline {figure}{\numberline {4}{\ignorespaces Effect of the \texttt  {charwidths} option\relax }}{18}{figure.caption.14}}
\@writefile{lof}{\contentsline {subfigure}{\numberline{(a)}{\ignorespaces {\texttt {charwidths=normal}}}}{18}{figure.caption.14}}
\@writefile{lof}{\contentsline {subfigure}{\numberline{(b)}{\ignorespaces {\texttt {charwidths=tight}}}}{18}{figure.caption.14}}
\newlabel{fig:ex-charwidths}{{Figure\nobreakspace  {}4}{18}{Effect of the \texttt {charwidths} option\relax \relax }{figure.caption.14}{}}
\@writefile{lof}{\contentsline {figure}{\numberline {5}{\ignorespaces Effect of the \texttt  {leading} option\relax }}{19}{figure.caption.15}}
\@writefile{lof}{\contentsline {subfigure}{\numberline{(a)}{\ignorespaces {\texttt {leading=normal}}}}{19}{figure.caption.15}}
\@writefile{lof}{\contentsline {subfigure}{\numberline{(b)}{\ignorespaces {\texttt {leading=tight}}}}{19}{figure.caption.15}}
\newlabel{fig:ex-leading}{{Figure\nobreakspace  {}5}{19}{Effect of the \texttt {leading} option\relax \relax }{figure.caption.15}{}}
\@writefile{lof}{\contentsline {figure}{\numberline {6}{\ignorespaces Combined effect of using multiple options\relax }}{19}{figure.caption.16}}
\@writefile{lof}{\contentsline {subfigure}{\numberline{(a)}{\ignorespaces {\texttt {all=normal}}}}{19}{figure.caption.16}}
\@writefile{lof}{\contentsline {subfigure}{\numberline{(b)}{\ignorespaces {\texttt {wordspacing=tight, tracking=tight, charwidths=tight, leading=tight}}}}{19}{figure.caption.16}}
\newlabel{fig:ex-multiple}{{Figure\nobreakspace  {}6}{19}{Combined effect of using multiple options\relax \relax }{figure.caption.16}{}}
\providecommand\HD@SetMacroIndent[1]{}
\HD@SetMacroIndent{297}
